[{
  "id": 1,
  "fecha": "12/12/2018",
  "importe": 46,
  "latitude": 35.0435187,
  "longitud": 25.0928704,
  "ciudad": "Asímion"
}, {
  "id": 2,
  "fecha": "5/5/2018",
  "importe": 24,
  "latitude": 63.4251464,
  "longitud": 10.4677043,
  "ciudad": "Trondheim"
}, {
  "id": 3,
  "fecha": "8/6/2018",
  "importe": 48,
  "latitude": -33.8125656,
  "longitud": -70.7375968,
  "ciudad": "Paine"
}, {
  "id": 4,
  "fecha": "12/23/2018",
  "importe": 58,
  "latitude": 24.660261,
  "longitud": 112.297428,
  "ciudad": "Sanpai"
}, {
  "id": 5,
  "fecha": "4/7/2019",
  "importe": 43,
  "latitude": -6.921715,
  "longitud": 112.054703,
  "ciudad": "Semanding Barat"
}, {
  "id": 6,
  "fecha": "5/2/2019",
  "importe": 90,
  "latitude": 22.746566,
  "longitud": 114.058404,
  "ciudad": "Dashahe"
}, {
  "id": 7,
  "fecha": "5/7/2018",
  "importe": 24,
  "latitude": 38.56077,
  "longitud": 114.250474,
  "ciudad": "Chatou"
}, {
  "id": 8,
  "fecha": "6/12/2019",
  "importe": 51,
  "latitude": 44.9844262,
  "longitud": 15.8238674,
  "ciudad": "Pjanići"
}, {
  "id": 9,
  "fecha": "10/8/2018",
  "importe": 31,
  "latitude": 32.2821952,
  "longitud": -90.2291565,
  "ciudad": "Jackson"
}, {
  "id": 10,
  "fecha": "4/11/2018",
  "importe": 43,
  "latitude": -29.1051592,
  "longitud": -54.8731219,
  "ciudad": "Santiago"
}]
